[
    {
        "type": "profession",
        "ident": "dragon_furred",
        "name": "Furred Dragon",
        "description": "You used to be ... a smaller furred dragon.  Clandestine research tore a rift across dimensions - and you slept through all of it. You woke up inside the obliterated military facility with the vile stench of decay in your nostrils.  However, this sun is murder to you.",
        "points": 10,
        "traits": [
            "COLDBLOOD4",
            "FELINE_EARS",
            "FORKED_TONGUE",
            "HEAVYSLEEPER2",
            "HOLLOW_BONES",
            "HORNS_POINTED",
            "LIZ_EYE",
            "LIZ_IR",
            "LUPINE_FUR",
            "MUZZLE_LONG",
            "PADDED_FEET",
            "SLIT_NOSTRILS",
            "TAIL_THICK",
            "TALONS",
            "NIGHTVISION3",
            "SABER_TEETH",
            "POISONOUS2",
            "SAPIOVORE",
            "FLEET2",
            "WHISKERS",
            "SUNBURN",
            "TROGLO3",
            "SLIMY",
            "LARGE_OK",
            "GILLS",
            "FLIMSY",
            "ADRENALINE",
            "SLOWHEALER3",
            "MEMBRANE"
        ],
        "items": {
            "both": {
                "items": [
                    "robe"
                ],
                "entries": [
                    { "item": "knife_rm42", "container-item": "sheath" },
                    { "item": "pistol_flintlock", "ammo-item": "flintlock_ammo", "charges": 1 },
                    { "item": "pistol_flintlock", "ammo-item": "flintlock_ammo", "charges": 1 },
                    { "item": "flintlock_ammo", "charges": 60 }
                ]
            }
        }
    },
    {
        "type": "profession",
        "ident": "fursuiter",
        "name": "Fursuiter",
        "description": "In the commotion you were separated from your local suiter group.  As it turns out the undead have more hugs to offer than you can handle.",
        "points": 6,
        "skills": [
            {
                "level": 3,
                "name": "dodge"
            },
            {
                "level": 2,
                "name": "tailor"
            }
        ],
        "items": {
            "both": {
                "items": [
                    "wolfsuit",
                    "runner_bag",
                    "under_armor",
                    "under_armor_shorts",
                    "water_clean",
                    "water_clean",
                    "water_clean",
                    "cell_phone",
                    "pockknife",
                    "tailors_kit",
                    "thread"
                ],
                "entries": [
                    { "item": "tazer", "charges": 100 }
                ]
            }
        }
    }
]
